epoch: 0000, average loss: 0.0191, psnr: 31.4221
epoch: 0001, average loss: 0.0120, psnr: 31.7200
epoch: 0002, average loss: 0.0103, psnr: 31.9197
epoch: 0003, average loss: 0.0098, psnr: 31.9991
epoch: 0004, average loss: 0.0097, psnr: 32.0713
epoch: 0005, average loss: 0.0097, psnr: 32.0949
epoch: 0006, average loss: 0.0089, psnr: 32.0698
epoch: 0007, average loss: 0.0088, psnr: 32.1117
epoch: 0008, average loss: 0.0089, psnr: 32.1423
epoch: 0009, average loss: 0.0089, psnr: 32.1280
epoch: 0010, average loss: 0.0089, psnr: 32.1846
epoch: 0011, average loss: 0.0087, psnr: 32.2427
epoch: 0012, average loss: 0.0084, psnr: 32.2083
epoch: 0013, average loss: 0.0088, psnr: 32.1770
epoch: 0014, average loss: 0.0084, psnr: 32.1709
epoch: 0015, average loss: 0.0085, psnr: 32.2016
epoch: 0016, average loss: 0.0087, psnr: 32.2329
epoch: 0017, average loss: 0.0082, psnr: 32.2110
epoch: 0018, average loss: 0.0082, psnr: 32.2216
epoch: 0019, average loss: 0.0082, psnr: 32.2675
epoch: 0020, average loss: 0.0083, psnr: 32.2449
epoch: 0021, average loss: 0.0085, psnr: 32.2860
epoch: 0022, average loss: 0.0084, psnr: 32.2903
epoch: 0023, average loss: 0.0083, psnr: 32.3104
epoch: 0024, average loss: 0.0083, psnr: 32.3077
epoch: 0025, average loss: 0.0081, psnr: 32.3048
epoch: 0026, average loss: 0.0080, psnr: 32.3283
epoch: 0027, average loss: 0.0082, psnr: 32.3459
epoch: 0028, average loss: 0.0082, psnr: 32.3867
epoch: 0029, average loss: 0.0081, psnr: 32.3588
epoch: 0030, average loss: 0.0080, psnr: 32.3879
epoch: 0031, average loss: 0.0077, psnr: 32.3930
epoch: 0032, average loss: 0.0078, psnr: 32.4026
epoch: 0033, average loss: 0.0081, psnr: 32.4004
epoch: 0034, average loss: 0.0077, psnr: 32.4067
epoch: 0035, average loss: 0.0080, psnr: 32.4061
epoch: 0036, average loss: 0.0080, psnr: 32.4315
epoch: 0037, average loss: 0.0077, psnr: 32.4365
epoch: 0038, average loss: 0.0080, psnr: 32.4398
epoch: 0039, average loss: 0.0080, psnr: 32.4527
epoch: 0040, average loss: 0.0079, psnr: 32.4318
epoch: 0041, average loss: 0.0079, psnr: 32.4548
epoch: 0042, average loss: 0.0079, psnr: 32.4648
epoch: 0043, average loss: 0.0075, psnr: 32.4326
epoch: 0044, average loss: 0.0076, psnr: 32.4662
epoch: 0045, average loss: 0.0078, psnr: 32.4664
epoch: 0046, average loss: 0.0078, psnr: 32.4763
epoch: 0047, average loss: 0.0076, psnr: 32.4597
epoch: 0048, average loss: 0.0075, psnr: 32.4949
epoch: 0049, average loss: 0.0078, psnr: 32.4326
epoch: 0050, average loss: 0.0077, psnr: 32.5027
epoch: 0051, average loss: 0.0078, psnr: 32.5033
epoch: 0052, average loss: 0.0077, psnr: 32.4817
epoch: 0053, average loss: 0.0076, psnr: 32.4723
epoch: 0054, average loss: 0.0076, psnr: 32.5231
epoch: 0055, average loss: 0.0076, psnr: 32.5141
epoch: 0056, average loss: 0.0076, psnr: 32.5007
epoch: 0057, average loss: 0.0076, psnr: 32.4907
epoch: 0058, average loss: 0.0073, psnr: 32.5072
epoch: 0059, average loss: 0.0076, psnr: 32.4936
epoch: 0060, average loss: 0.0076, psnr: 32.5131
epoch: 0061, average loss: 0.0076, psnr: 32.5506
epoch: 0062, average loss: 0.0075, psnr: 32.5210
epoch: 0063, average loss: 0.0075, psnr: 32.5243
epoch: 0064, average loss: 0.0075, psnr: 32.5464
epoch: 0065, average loss: 0.0075, psnr: 32.5445
epoch: 0066, average loss: 0.0075, psnr: 32.5656
epoch: 0067, average loss: 0.0075, psnr: 32.5559
epoch: 0068, average loss: 0.0074, psnr: 32.5511
epoch: 0069, average loss: 0.0072, psnr: 32.5623
epoch: 0070, average loss: 0.0072, psnr: 32.5617
epoch: 0071, average loss: 0.0073, psnr: 32.5708
epoch: 0072, average loss: 0.0075, psnr: 32.5909
epoch: 0073, average loss: 0.0073, psnr: 32.6024
epoch: 0074, average loss: 0.0074, psnr: 32.6154
epoch: 0075, average loss: 0.0074, psnr: 32.6544
epoch: 0076, average loss: 0.0073, psnr: 32.6503
epoch: 0077, average loss: 0.0073, psnr: 32.6669
epoch: 0078, average loss: 0.0073, psnr: 32.6893
epoch: 0079, average loss: 0.0072, psnr: 32.6877
epoch: 0080, average loss: 0.0072, psnr: 32.7011
epoch: 0081, average loss: 0.0072, psnr: 32.7048
epoch: 0082, average loss: 0.0072, psnr: 32.6841
epoch: 0083, average loss: 0.0072, psnr: 32.7249
epoch: 0084, average loss: 0.0072, psnr: 32.7134
epoch: 0085, average loss: 0.0071, psnr: 32.7477
epoch: 0086, average loss: 0.0071, psnr: 32.7406
epoch: 0087, average loss: 0.0071, psnr: 32.7532
epoch: 0088, average loss: 0.0071, psnr: 32.7298
epoch: 0089, average loss: 0.0071, psnr: 32.7627
epoch: 0090, average loss: 0.0071, psnr: 32.7901
epoch: 0091, average loss: 0.0071, psnr: 32.7388
epoch: 0092, average loss: 0.0071, psnr: 32.7562
epoch: 0093, average loss: 0.0070, psnr: 32.7785
epoch: 0094, average loss: 0.0070, psnr: 32.7856
epoch: 0095, average loss: 0.0070, psnr: 32.7785
epoch: 0096, average loss: 0.0070, psnr: 32.8039
epoch: 0097, average loss: 0.0070, psnr: 32.8038
epoch: 0098, average loss: 0.0070, psnr: 32.8044
epoch: 0099, average loss: 0.0070, psnr: 32.8010
epoch: 0100, average loss: 0.0070, psnr: 32.8149
epoch: 0101, average loss: 0.0070, psnr: 32.7881
epoch: 0102, average loss: 0.0070, psnr: 32.8023
